UVM_RegisterFiles/dump.vcd
$date
	Tue Nov 15 22:46:25 2022
$end

$version
	Synopsys VCS version R-2020.12-SP2-1_Full64
$end

$timescale
	1s
$end

$comment Csum: 1 14753aaffd39a906 $end


$scope module $unit $end
$upscope $end


$scope module tb $end
$var reg 1 ! clk $end

$scope begin unnamed$$_vcs_2 $end
$upscope $end


$scope begin unnamed$$_vcs_0 $end
$upscope $end


$scope begin unnamed$$_vcs_1 $end
$upscope $end


$scope module _if $end
$var reg 1 " clk $end
$var reg 1 # rstn $end
$var reg 8 $ addr [7:0] $end
$var reg 16 % wdata [15:0] $end
$var reg 16 & rdata [15:0] $end
$var reg 1 ' wr $end
$var reg 1 ( sel $end
$var reg 1 ) ready $end
$upscope $end


$scope module u0 $end
$var wire 1 * clk $end
$var wire 1 + rstn $end
$var wire 8 , addr [7:0] $end
$var wire 1 - sel $end
$var wire 1 . wr $end
$var wire 16 / wdata [15:0] $end
$var reg 16 0 rdata [15:0] $end
$var reg 1 1 ready $end
$var reg 1 2 ready_dly $end
$var wire 1 3 ready_pe $end

$scope begin unnamed$$_0 $end
$upscope $end

$upscope $end

$upscope $end


$scope module uvm_pkg $end
$var reg 32 4 UVM_UNBOUNDED_CONNECTIONS [31:0] $end
$var reg 32 5 m_uvm_core_state [31:0] $end
$var reg 32 6 uvm_global_random_seed [31:0] $end
$upscope $end

$enddefinitions $end

#0
$dumpvars
b11111111111111111111111111111111 4
b00000000000000000000000000000101 5
b01000010000001111100110001000111 6
0!
bxxxxxxxxxxxxxxxx &
bxxxxxxxxxxxxxxxx %
bxxxxxxxx $
x1
x2
x3
bxxxxxxxxxxxxxxxx 0
0"
0*
bxxxxxxxx ,
bxxxxxxxxxxxxxxxx /
0+
x-
x.
x)
0#
x(
x'
$end
#10
1!
1*
1"
11
03
1)
12
#20
0!
0*
0"
#30
1!
1*
1"
#40
0!
0*
0"
#50
1!
1*
1"
#60
0!
0*
0"
#70
1!
1*
1"
#80
0!
0*
0"
#90
1!
1*
1"
1#
1+
#100
0!
0*
0"
#110
1!
1*
1"
b0000000000000000 0
b0000000000000000 &
#120
0!
0*
0"
#130
1!
1*
1"
#140
0!
0*
0"
#150
1!
1*
1"
#160
0!
0*
0"
#170
1!
1*
1"
#180
0!
0*
0"
#190
1!
1*
1"
#200
0!
0*
0"
#210
1!
1*
1"
#220
0!
0*
0"
#230
1!
1*
1"
#240
0!
0*
0"
#250
1!
1*
1"
#260
0!
0*
0"
#270
1!
1*
1"
#280
0!
0*
0"
#290
1!
1*
1"
1(
1-
b01001011 $
b01001011 ,
1'
1.
b1011011100000000 %
b1011011100000000 /
#300
0!
0*
0"
#310
1!
1*
1"
0(
0-
1(
1-
b01110100 $
b01110100 ,
b1000111110010001 %
b1000111110010001 /
#320
0!
0*
0"
#330
1!
1*
1"
0(
0-
1(
1-
b01110011 $
b01110011 ,
0'
0.
b0110101100010001 %
b0110101100010001 /
#340
0!
0*
0"
#350
1!
1*
1"
b0001001000110100 0
b0001001000110100 &
01
13
0)
0(
0-
1(
1-
b11110100 $
b11110100 ,
1'
1.
b0110101000100011 %
b0110101000100011 /
#360
0!
0*
0"
#370
1!
1*
1"
b0000000000000000 0
b0000000000000000 &
11
03
1)
02
#380
0!
0*
0"
#390
1!
1*
1"
12
0(
0-
1(
1-
b00110010 $
b00110010 ,
0'
0.
b1011010101001110 %
b1011010101001110 /
#400
0!
0*
0"
#410
1!
1*
1"
b0001001000110100 0
b0001001000110100 &
01
13
0)
0(
0-
1(
1-
b00010000 $
b00010000 ,
b1100001101001100 %
b1100001101001100 /
#420
0!
0*
0"
#430
1!
1*
1"
b0000000000000000 0
b0000000000000000 &
11
03
1)
02
#440
0!
0*
0"
#450
1!
1*
1"
b0001001000110100 0
b0001001000110100 &
01
0)
12
13
0(
0-
1(
1-
b11101110 $
b11101110 ,
1'
1.
b1110010011001010 %
b1110010011001010 /
#460
0!
0*
0"
#470
1!
1*
1"
b0000000000000000 0
b0000000000000000 &
11
03
1)
02
#480
0!
0*
0"
#490
1!
1*
1"
12
0(
0-
1(
1-
b01110101 $
b01110101 ,
b1010011001000001 %
b1010011001000001 /
#500
0!
0*
0"
#510
1!
1*
1"
0(
0-
1(
1-
b11110111 $
b11110111 ,
0'
0.
b1110011111110011 %
b1110011111110011 /
#520
0!
0*
0"
#530
1!
1*
1"
b0001001000110100 0
b0001001000110100 &
01
13
0)
0(
0-
1(
1-
b00110001 $
b00110001 ,
1'
1.
b1010011011111000 %
b1010011011111000 /
#540
0!
0*
0"
#550
1!
1*
1"
b0000000000000000 0
b0000000000000000 &
11
03
1)
02
#560
0!
0*
0"
#570
1!
1*
1"
12
0(
0-
1(
1-
b10011111 $
b10011111 ,
0'
0.
b1010011111110010 %
b1010011111110010 /
#580
0!
0*
0"
#590
1!
1*
1"
b0001001000110100 0
b0001001000110100 &
01
13
0)
0(
0-
1(
1-
b11101011 $
b11101011 ,
1'
1.
b1110111110100011 %
b1110111110100011 /
#600
0!
0*
0"
#610
1!
1*
1"
b0000000000000000 0
b0000000000000000 &
11
03
1)
02
#620
0!
0*
0"
#630
1!
1*
1"
12
0(
0-
1(
1-
b01011110 $
b01011110 ,
b1110100001011010 %
b1110100001011010 /
#640
0!
0*
0"
#650
1!
1*
1"
0(
0-
1(
1-
b01100110 $
b01100110 ,
0'
0.
b0010110101111000 %
b0010110101111000 /
#660
0!
0*
0"
#670
1!
1*
1"
b0001001000110100 0
b0001001000110100 &
01
13
0)
0(
0-
1(
1-
b01010000 $
b01010000 ,
1'
1.
b0101100001000010 %
b0101100001000010 /
#680
0!
0*
0"
#690
1!
1*
1"
b0000000000000000 0
b0000000000000000 &
11
03
1)
02
#700
0!
0*
0"
#710
1!
1*
1"
12
0(
0-
1(
1-
b01010101 $
b01010101 ,
0'
0.
b0010110111111101 %
b0010110111111101 /
#720
0!
0*
0"
#730
1!
1*
1"
b0001001000110100 0
b0001001000110100 &
01
13
0)
0(
0-
1(
1-
b11000001 $
b11000001 ,
b1100000111100101 %
b1100000111100101 /
#740
0!
0*
0"
#750
1!
1*
1"
b0000000000000000 0
b0000000000000000 &
11
03
1)
02
#760
0!
0*
0"
#770
1!
1*
1"
b0001001000110100 0
b0001001000110100 &
01
0)
12
13
0(
0-
1(
1-
b00110000 $
b00110000 ,
b1111111000000011 %
b1111111000000011 /
#780
0!
0*
0"
#790
1!
1*
1"
b0000000000000000 0
b0000000000000000 &
11
03
1)
02
#800
0!
0*
0"
#810
1!
1*
1"
b0001001000110100 0
b0001001000110100 &
01
0)
12
13
0(
0-
1(
1-
b01011011 $
b01011011 ,
1'
1.
b1011110101111001 %
b1011110101111001 /
#820
0!
0*
0"
#830
1!
1*
1"
b0000000000000000 0
b0000000000000000 &
11
03
1)
02
#840
0!
0*
0"
#850
1!
1*
1"
12
0(
0-
1(
1-
b01001100 $
b01001100 ,
b0111010001011111 %
b0111010001011111 /
#860
0!
0*
0"
#870
1!
1*
1"
0(
0-
1(
1-
b11110111 $
b11110111 ,
0'
0.
b1110111111000101 %
b1110111111000101 /
#880
0!
0*
0"
#890
1!
1*
1"
b0001001000110100 0
b0001001000110100 &
01
13
0)
0(
0-
1(
1-
b10110101 $
b10110101 ,
b1010000110101100 %
b1010000110101100 /
#900
0!
0*
0"
#910
1!
1*
1"
b0000000000000000 0
b0000000000000000 &
11
03
1)
02
#920
0!
0*
0"
#930
1!
1*
1"
b0001001000110100 0
b0001001000110100 &
01
0)
12
13
0(
0-
1(
1-
b00110001 $
b00110001 ,
b0100011001000010 %
b0100011001000010 /
#940
0!
0*
0"
#950
1!
1*
1"
b0000000000000000 0
b0000000000000000 &
11
03
1)
02
#960
0!
0*
0"
#970
1!
1*
1"
b1010011011111000 0
b1010011011111000 &
01
0)
12
13
0(
0-
1(
1-
b11111100 $
b11111100 ,
1'
1.
b1011010100001001 %
b1011010100001001 /
#980
0!
0*
0"
#990
1!
1*
1"
b0000000000000000 0
b0000000000000000 &
11
03
1)
02
#1000
0!
0*
0"
#1010
1!
1*
1"
12
0(
0-
1(
1-
b01010011 $
b01010011 ,
0'
0.
b1110110001101001 %
b1110110001101001 /
#1020
0!
0*
0"
#1030
1!
1*
1"
b0001001000110100 0
b0001001000110100 &
01
13
0)
0(
0-
1(
1-
b01000000 $
b01000000 ,
b0011101011111010 %
b0011101011111010 /
#1040
0!
0*
0"
#1050
1!
1*
1"
b0000000000000000 0
b0000000000000000 &
11
03
1)
02
#1060
0!
0*
0"
#1070
1!
1*
1"
b0001001000110100 0
b0001001000110100 &
01
0)
12
13
0(
0-
1(
1-
b00001011 $
b00001011 ,
b1101011001110001 %
b1101011001110001 /
#1080
0!
0*
0"
#1090
1!
1*
1"
b0000000000000000 0
b0000000000000000 &
11
03
1)
02
#1100
0!
0*
0"
#1110
1!
1*
1"
b0001001000110100 0
b0001001000110100 &
01
0)
12
13
0(
0-
1(
1-
b11010111 $
b11010111 ,
1'
1.
b1010011100001000 %
b1010011100001000 /
#1120
0!
0*
0"
#1130
1!
1*
1"
b0000000000000000 0
b0000000000000000 &
11
03
1)
02
#1140
0!
0*
0"
#1150
1!
1*
1"
12
0(
0-
1(
1-
b10101011 $
b10101011 ,
b1001111011101011 %
b1001111011101011 /
#1160
0!
0*
0"
#1170
1!
1*
1"
0(
0-
#1180
0!
0*
0"
#1190
1!
1*
1"
#1200
0!
0*
0"
#1210
1!
1*
1"
#1220
0!
0*
0"
#1230
1!
1*
1"
#1240
0!
0*
0"
#1250
1!
1*
1"
#1260
0!
0*
0"
#1270
1!
1*
1"
#1280
0!
0*
0"
#1290
1!
1*
1"
#1300
0!
0*
0"
#1310
1!
1*
1"
#1320
0!
0*
0"
#1330
1!
1*
1"
#1340
0!
0*
0"
#1350
1!
1*
1"
#1360
0!
0*
0"
#1370
1!
1*
1"
b00000000000000000000000000000111 5
