SV_FIFO/dump.vcd
$date
	Mon Nov 21 03:15:48 2022
$end

$version
	Synopsys VCS version R-2020.12-SP2-1_Full64
$end

$timescale
	1s
$end

$comment Csum: 1 c3850f534ad4a882 $end


$scope module $unit $end
$upscope $end


$scope module mod $end

$scope begin unnamed$$_vcs_3 $end
$upscope $end


$scope begin unnamed$$_vcs_0 $end
$upscope $end


$scope begin unnamed$$_vcs_1 $end
$upscope $end


$scope begin unnamed$$_vcs_2 $end
$upscope $end


$scope module fif $end
$var reg 1 ! clock $end
$var reg 1 " rd $end
$var reg 1 # wr $end
$var reg 1 $ full $end
$var reg 1 % empty $end
$var reg 8 & data_in [7:0] $end
$var reg 8 ' data_out [7:0] $end
$var reg 1 ( rst $end
$upscope $end


$scope module DUT $end
$var wire 1 ) clock $end
$var wire 1 * rd $end
$var wire 1 + wr $end
$var wire 8 , data_in [7:0] $end
$var wire 1 - rst $end
$var wire 1 . full $end
$var wire 1 / empty $end
$var reg 8 0 data_out [7:0] $end
$var reg 6 1 head [5:0] $end
$var reg 6 2 tail [5:0] $end

$scope begin unnamed$$_0 $end
$upscope $end

$upscope $end

$upscope $end

$enddefinitions $end

#0
$dumpvars
bxxxxxxxx '
b00000000 &
bxxxxxxxx 0
bxxxxxx 1
bxxxxxx 2
b00000000 ,
0)
0*
0+
1-
0!
x%
x$
0"
1(
0#
x.
x/
$end
#10
1!
1)
b00000000 0
b00000000 '
b000000 1
1/
1%
0.
0$
b000000 2
#20
0!
0)
#30
1!
1)
#40
0!
0)
#50
1!
1)
#60
0!
0)
#70
1!
1)
#80
0!
0)
#90
1!
1)
0(
0-
b00000110 &
b00000110 ,
1"
1*
#100
0!
0)
#110
1!
1)
#120
0!
0)
#130
1!
1)
b00000010 &
b00000010 ,
0"
0*
1#
1+
#140
0!
0)
#150
1!
1)
b000001 2
0/
0%
#160
0!
0)
#170
1!
1)
b000010 2
1"
1*
0#
0+
#180
0!
0)
#190
1!
1)
b00000010 0
b00000010 '
b000001 1
#200
0!
0)
#210
1!
1)
b000010 1
1/
1%
b00000111 &
b00000111 ,
0"
0*
1#
1+
#220
0!
0)
#230
1!
1)
b000011 2
0/
0%
#240
0!
0)
#250
1!
1)
b000100 2
1"
1*
0#
0+
#260
0!
0)
#270
1!
1)
b00000111 0
b00000111 '
b000011 1
#280
0!
0)
#290
1!
1)
b000100 1
1/
1%
b00000011 &
b00000011 ,
0"
0*
1#
1+
#300
0!
0)
#310
1!
1)
b000101 2
0/
0%
#320
0!
0)
#330
1!
1)
b000110 2
b00000100 &
b00000100 ,
#340
0!
0)
#350
1!
1)
b000111 2
#360
0!
0)
#370
1!
1)
b001000 2
b00000101 &
b00000101 ,
1"
1*
0#
0+
#380
0!
0)
#390
1!
1)
b00000011 0
b00000011 '
b000101 1
#400
0!
0)
#410
1!
1)
b000110 1
b00000110 &
b00000110 ,
#420
0!
0)
#430
1!
1)
b00000100 0
b00000100 '
b000111 1
#440
0!
0)
#450
1!
1)
b001000 1
1/
1%
b00000101 &
b00000101 ,
0"
0*
1#
1+
#460
0!
0)
#470
1!
1)
b001001 2
0/
0%
#480
0!
0)
#490
1!
1)
b001010 2
1"
1*
0#
0+
#500
0!
0)
#510
1!
1)
b00000101 0
b00000101 '
b001001 1
#520
0!
0)
#530
1!
1)
b001010 1
1/
1%
b00000111 &
b00000111 ,
#540
0!
0)
#550
1!
1)
#560
0!
0)
#570
1!
1)
b00000100 &
b00000100 ,
0"
0*
1#
1+
#580
0!
0)
#590
1!
1)
b001011 2
0/
0%
#600
0!
0)
#610
1!
1)
b001100 2
b00000011 &
b00000011 ,
1"
1*
0#
0+
#620
0!
0)
#630
1!
1)
b00000100 0
b00000100 '
b001011 1
#640
0!
0)
#650
1!
1)
b001100 1
1/
1%
b00000100 &
b00000100 ,
0"
0*
1#
1+
#660
0!
0)
#670
1!
1)
b001101 2
0/
0%
#680
0!
0)
#690
1!
1)
b001110 2
b00000011 &
b00000011 ,
#700
0!
0)
#710
1!
1)
b001111 2
#720
0!
0)
#730
1!
1)
b010000 2
b00000110 &
b00000110 ,
#740
0!
0)
#750
1!
1)
b010001 2
#760
0!
0)
#770
1!
1)
b010010 2
1"
1*
0#
0+
#780
0!
0)
#790
1!
1)
b001101 1
#800
0!
0)
#810
1!
1)
b001110 1
b00000010 &
b00000010 ,
#820
0!
0)
#830
1!
1)
b00000011 0
b00000011 '
b001111 1
#840
0!
0)
#850
1!
1)
b010000 1
b00000100 &
b00000100 ,
#860
0!
0)
#870
1!
1)
b00000110 0
b00000110 '
b010001 1
